Lab6
…
# A tibble: 6 × 3
  description                                    medical_specialty transcription
  <chr>                                          <chr>             <chr>        
1 A 23-year-old white female presents with comp… Allergy / Immuno… "SUBJECTIVE:…
2 Consult for laparoscopic gastric bypass.       Bariatrics        "PAST MEDICA…
3 Consult for laparoscopic gastric bypass.       Bariatrics        "HISTORY OF …
4 2-D M-Mode. Doppler.                           Cardiovascular /… "2-D M-MODE:…
5 2-D Echocardiogram                             Cardiovascular /… "1.  The lef…
6 Morbid obesity.  Laparoscopic antecolic anteg… Bariatrics        "PREOPERATIV…

mt_samples %>%
  count(medical_specialty, sort = TRUE)

# A tibble: 40 × 2
   medical_specialty                 n
   <chr>                         <int>
 1 Surgery                        1103
 2 Consult - History and Phy.      516
 3 Cardiovascular / Pulmonary      372
 4 Orthopedic                      355
 5 Radiology                       273
 6 General Medicine                259
 7 Gastroenterology                230
 8 Neurology                       223
 9 SOAP / Chart / Progress Notes   166
10 Obstetrics / Gynecology         160
# ℹ 30 more rows
…
Using tri-grams you are able to get a better description about what the text is about.

Question 5

library(tidyr)
mt_bigrams <- mt_samples %>%
  unnest_ngrams(output = token, input = transcription, n = 2) %>%
  separate(col = token, into =c("word1", "word2"), sep = " ") %>%
  select(word1, word2)
  
mt_bigrams %>%
  filter(word1 == "medical") %>%
  count (word2, sort = TRUE)

# A tibble: 97 × 2
   word2          n
   <chr>      <int>
 1 history     1223
 2 center        94
 3 problems      93
 4 therapy       76
 5 records       60
 6 attention     39
 7 management    35
 8 floor         31
 9 record        29
10 treatment     29
# ℹ 87 more rows

mt_bigrams %>%
  filter(word2 == "medical") %>%
  count (word1, sort = TRUE)

# A tibble: 180 × 2
   word1        n
   <chr>    <int>
 1 past      1113
 2 the         88
 3 to          56
 4 multiple    42
 5 other       40
 6 family      38
 7 his         32
 8 general     28
 9 known       24
10 maximum     24
# ℹ 170 more rows

mt_bigrams %>%
  count(word1, word2, sort = TRUE)

# A tibble: 301,419 × 3
   word1   word2       n
   <chr>   <chr>   <int>
 1 the     patient 20307
 2 of      the     19062
 3 in      the     12790
 4 to      the     12374
 5 was     then     6956
 6 and     the      6350
 7 patient was      6293
 8 the     right    5509
 9 on      the      5241
10 the     left     4860
# ℹ 301,409 more rows

mt_bigrams %>%
  anti_join(
    tidytext :: stop_words %>% select(word), by =c("word1" = "word")
  ) %>%
  anti_join(
    tidytext :: stop_words %>% select(word), by =c("word2" = "word")
  ) %>%
  count(word1, word2, sort = TRUE)

# A tibble: 128,018 × 3
   word1         word2           n
   <chr>         <chr>       <int>
 1 0             vicryl       1802
 2 blood         pressure     1265
 3 medical       history      1223
 4 diagnoses     1            1192
 5 preoperative  diagnosis    1176
 6 physical      examination  1156
 7 4             0            1123
 8 vital         signs        1121
 9 past          medical      1113
10 postoperative diagnosis    1092
# ℹ 128,008 more rows

Question 6

mt_samples %>% 
  unnest_tokens(token, transcription) %>%
  anti_join(tidytext :: stop_words, by = c("token" = "word")) %>%
  group_by(medical_specialty) %>%
  count(token) %>%
  top_n(5,n)

# A tibble: 209 × 3
# Groups:   medical_specialty [40]
   medical_specialty    token         n
   <chr>                <chr>     <int>
 1 Allergy / Immunology allergies    21
 2 Allergy / Immunology history      38
 3 Allergy / Immunology nasal        13
 4 Allergy / Immunology noted        23
 5 Allergy / Immunology past         13
 6 Allergy / Immunology patient      22
 7 Autopsy              1            66
 8 Autopsy              anterior     47
 9 Autopsy              inch         59
10 Autopsy              left         83
# ℹ 199 more rows
…
